  128  exit
  129  ssh ./tiempo &
  130  exit
  131  ps aux | grep tiempo
  132  ls
  133  cd work/
  134  cd os-subject/
  135  cd 03_20
  136  git status
  137  git add .
  138  git status
  139  history 
  140  touch testy.py
  141  ls
  142  python3 testy.py > salida.txt
  143  bg %3
  144  job
  145  jobs
  146  python3 testy.py > salida.txt &
  147  disown %1
  148  disown -h %1
  149  python3 -u testy.py > temporal.txt &
  150  jobs
  151  disown
  152  disown -a
  153  ps -ef | grep "python3 -u test.py"
  154  jobs
  155  disown -ar
  156  kill %3
  157  jobs
  158  ps -ef | grep "python3 -u test"
  159  pkill
  160  history 
  161  history | tail -35 -
  162  history | tail -35 - > histial_03_20.txt
  163  cat history | tail -35 - > histial_03_20.txt
  164  cat histial_03_20.txt
  165  history | tail -35 -
  166  history | tail -40 -
  167  history | tail -40 - > historial_03_20.txt
